{
  "pluginVersion": null,
  "moduleLocation": "/home/sasha/androidProjects/HuweiMigrationComplete/xmsadapter",
  "app": false,
  "kitNames": [
    "Firebase",
    "Basement",
    "Push",
    "Analytics",
    "Location"
  ],
  "strategy": [
    "HOrG",
    "G",
    "H"
  ],
  "allFiles": {
    "README.md": "10d130d37d323f44103ef58428d914dd3d6b103cc51a54d3febbd63df7f412e8",
    "build.gradle": "6f1c43dadc8d1820f2c0eb3615e1aa3e9ca8963077688e635458225081fb280a",
    "scripts/productFlavor.gradle": "2ec60e71a987645052e46d803a30cbfcb0360403de23dadc786fb863a0d2ad71",
    "src/main/AndroidManifest.xml": "f6012308aa708f82da2922c6e0d535c6faa8d55f465c4acfd006b5becc787b5c",
    "src/xmsg/java/org/xms/f/ExtensionApiNotAvailableException.java": "2f2572e0ce2b932242fe6fc07fde7a30dd5df10b7b77cd4cedcadad80273bebd",
    "src/xmsg/java/org/xms/f/ExtensionApp.java": "3637c680d6db4e1884ec7e30b8517b4865c3a247fc1d157ce7ca4a2c8a6e8569",
    "src/xmsg/java/org/xms/f/ExtensionException.java": "bcca56d632d1716c3d21367706cb1d72cb5e0ff1670b4e0f8eddce5f68e044ae",
    "src/xmsg/java/org/xms/f/analytics/ExtensionAnalytics.java": "5ce258f6a4d8ce1898e379df9422019e0711040092022f9dc49713c16d24796d",
    "src/xmsg/java/org/xms/f/iid/ExtensionInstanceId.java": "b931e810b60eedfa241928c5e357a04a8b2243bc9a7bca9ef32d48fefc772df8",
    "src/xmsg/java/org/xms/f/iid/ExtensionInstanceIdReceiver.java": "50ce05e11d10dbb2eb28a3f36abc5baf5108acb5c3f46e79a39571c5ab6500e8",
    "src/xmsg/java/org/xms/f/iid/InstanceIdResult.java": "fde399d29c7342e36aa98bc3ac66f5dd3dde657492101d65d9417feabc96e28a",
    "src/xmsg/java/org/xms/f/messaging/ExtensionMessaging.java": "f7e32702848d02921e136a8218b3db09b25b485e9bdd452c8f51ec009402fa85",
    "src/xmsg/java/org/xms/f/messaging/RemoteMessage.java": "f0ee9b438728c39efa70e03c3ac37cebb0621f070f6d423734025bff54e7397d",
    "src/xmsg/java/org/xms/f/messaging/SendException.java": "9eb0f46bbe62f54fdbc31109622b2f83785c3b98a5f10f2c8dfaca6cc7a61ddf",
    "src/xmsg/java/org/xms/g/actions/ItemListIntents.java": "3251a939525a7c965315ec09be7c4df734c0bcc0628b8b3d57804fb2e9cf152b",
    "src/xmsg/java/org/xms/g/actions/NoteIntents.java": "e98bade94afdfeeba528869bfb0e570dab2ceafa19b2f194d07cfb4a30be35d7",
    "src/xmsg/java/org/xms/g/actions/ReserveIntents.java": "eb33d3518abe5772453d834cdc8b77e31dbbd9d1d19a0fcea30e7aec4fe0b3f8",
    "src/xmsg/java/org/xms/g/actions/SearchIntents.java": "9bfbf41f1f47b20923590f8b9e4c3c5ba939d47d31d65b5ed586ac2e5d912c25",
    "src/xmsg/java/org/xms/g/analytics/AnalyticsJobService.java": "dc3fa36b9fe189baf351bee6fa7b8a29259ccd9f9b31d4c2c5f95a4ca20f321d",
    "src/xmsg/java/org/xms/g/analytics/AnalyticsReceiver.java": "86579e65edcc0a7afd5ec0051a7e1f194a3bac43a5aa9fc28d53f7d0f5bc10c6",
    "src/xmsg/java/org/xms/g/analytics/AnalyticsService.java": "343c4f5409741f7e048067fd22b6ba9bdc3e974ec5f17de448c9c65bec1919be",
    "src/xmsg/java/org/xms/g/analytics/CampaignTrackingReceiver.java": "6d81a2d3bdb913eb3dd621067f4d0752044db4eca51be1d00ba9602f342d8f94",
    "src/xmsg/java/org/xms/g/analytics/CampaignTrackingService.java": "ac7b82b1dbea1beca01b56d0ab22b9e7cc02c2da7523b1679c46af76b1336639",
    "src/xmsg/java/org/xms/g/analytics/ExceptionParser.java": "afa8c9fdbdba8fc9c2f5873d5f611e75815ae3b1fc94843c7fc7b7d55bf744a5",
    "src/xmsg/java/org/xms/g/analytics/ExceptionReporter.java": "50c4e344851ecb6954a0181eb244d2e5fa268c7fb8d3f4614eba75d16e87247f",
    "src/xmsg/java/org/xms/g/analytics/ExtensionAnalytics.java": "a10eb37408fa309a1a39874e51fe0eebd2b71659a226b399c0e89616e1a08312",
    "src/xmsg/java/org/xms/g/analytics/HitBuilders.java": "87c5a571214317ef6db9f1ef1a6cb1cf22a62d0a1858d2c170198a03827a824d",
    "src/xmsg/java/org/xms/g/analytics/Logger.java": "61ef30be801a6ceec64af95ecf74a1b096b20895ac813195c7b2a4f98b5f105f",
    "src/xmsg/java/org/xms/g/analytics/StandardExceptionParser.java": "4cd1e3c8553dd1015ce58a1f3fbfdc167c28a23f2834ed79969be333cd1ed7fc",
    "src/xmsg/java/org/xms/g/analytics/Tracker.java": "0a105f6609aa1b07c86b3e6e7f21031426edfba8ce0af56ae5c705518b123798",
    "src/xmsg/java/org/xms/g/analytics/ecommerce/Product.java": "2971a5894be6b39a98ea32e527c27a905398bc3112489c2813fe1cd64f5c2b19",
    "src/xmsg/java/org/xms/g/analytics/ecommerce/ProductAction.java": "02d573a7b7270eb29a77f9097779701adab7eeb14105b983ab46bd1323b692e2",
    "src/xmsg/java/org/xms/g/analytics/ecommerce/Promotion.java": "c3284e46a451abecdf77e7cf1ab250d0580104846f219c3169d08a2db12e2b19",
    "src/xmsg/java/org/xms/g/common/AccountPicker.java": "3112dcdf787a13f36dec96621429a87df3d9d338319619d1b55e51699e374c45",
    "src/xmsg/java/org/xms/g/common/ConnectionResult.java": "4fd513bc9ce32a0009654e5a5474a6d0d79488a099b57ad5c72c22abbac99d05",
    "src/xmsg/java/org/xms/g/common/ErrorDialogFragment.java": "68ee77799c0626ed65b7adeb8600bcf53a74b803ace2678710849f87aebed119",
    "src/xmsg/java/org/xms/g/common/ExtensionApiAvailability.java": "40dc81e731c1a91b05a6cdc131dcf348d3d0a4f85f017bc4dc7c8476ae5a1da8",
    "src/xmsg/java/org/xms/g/common/ExtensionPlayServicesNotAvailableException.java": "5bdda1d26fc66e3197a24589610280e7946c1752e7bb0f3ffc638013ff2da762",
    "src/xmsg/java/org/xms/g/common/ExtensionPlayServicesRepairableException.java": "fea16257f54b772c479fea47c0c003af4abed24c4c0ba6ab515a6391aa26bd95",
    "src/xmsg/java/org/xms/g/common/ExtensionPlayServicesUtil.java": "51033ab03ecdc9c45908097335f5376bac93b9a68ecf135321c34849fe7315e1",
    "src/xmsg/java/org/xms/g/common/Scopes.java": "d9189c5172dc384c014f04bac86c8493db514da769b1d3a9cd126b4d3ce1da2f",
    "src/xmsg/java/org/xms/g/common/SupportErrorDialogFragment.java": "9482bc43e21e34af02e39a519b683276d57279ff778240d133231e79878b24e7",
    "src/xmsg/java/org/xms/g/common/UserRecoverableException.java": "273ef625244ddde34a5b377a2b91c8f25c31567425b86c007eeb9cfd64c97912",
    "src/xmsg/java/org/xms/g/common/api/Api.java": "2823181b1fbb1dc3d0c84ec096660414895091065a5d5305b067e70b2544af92",
    "src/xmsg/java/org/xms/g/common/api/ApiException.java": "9f4b9a2e1de2167d1bd22e539735456336600bfc8afb1cd7f31101f5bd7ab43d",
    "src/xmsg/java/org/xms/g/common/api/AvailabilityException.java": "3e76271eb066838be38cb1a73b855f838fd902ded7bc071c65e96fdbe0b8d8c7",
    "src/xmsg/java/org/xms/g/common/api/Batch.java": "1c3e8ca9b7eeb1885aeaffcf0a1a5b8b301c14aa0fec5fc41777cb00ca17bc22",
    "src/xmsg/java/org/xms/g/common/api/BatchResult.java": "3961583818f52e76ad618f55df85eef8867a5b278373f07547ac3b05f3c6d846",
    "src/xmsg/java/org/xms/g/common/api/BatchResultToken.java": "773309f4a7429c209920b325ce22c2f59ca39f0297bb68f853dd6f95c79a8d97",
    "src/xmsg/java/org/xms/g/common/api/BooleanResult.java": "9988eb3615694198407a4f83019cbe1bd871c62be43f19ea05e64137bfa5d1a1",
    "src/xmsg/java/org/xms/g/common/api/CommonStatusCodes.java": "4da3fbeb184711ec7b50da277ec31b343bc27ac1179c51a5f5a1a87028aa0072",
    "src/xmsg/java/org/xms/g/common/api/ExtensionApi.java": "2aca12f2d1efae390f78b12fb7755fe2ee048c7ba9482d4ec7264118e8c2da27",
    "src/xmsg/java/org/xms/g/common/api/ExtensionApiClient.java": "40f1da878f55584110a6057a9da75cadb25d371be54cbf57a040d9b6584067ec",
    "src/xmsg/java/org/xms/g/common/api/HasApiKey.java": "7dcaafcc827154e2a68066b269e6c7a50d84106e5714717819fcc011bedd5f3b",
    "src/xmsg/java/org/xms/g/common/api/OptionalPendingResult.java": "8345ab185b02d62efff0fced7ee3748672dd57bfbb569a6b6ea114e692ba2963",
    "src/xmsg/java/org/xms/g/common/api/PendingResult.java": "66f44f80991523339bf0def84ef1a56033d154c667039936f3029314de09ef02",
    "src/xmsg/java/org/xms/g/common/api/PendingResults.java": "8f712d8929896be50c236c2321bf470e23fb28ede169b11acb0c943373032d01",
    "src/xmsg/java/org/xms/g/common/api/Releasable.java": "46bdf5752d08cd1fd9a0696c33d7da145ab5bfe692ebe62b0f8628fa4d486de5",
    "src/xmsg/java/org/xms/g/common/api/ResolvableApiException.java": "71109d0380c489c09e42388c54961c4183dd035533abe2c2eb6bcfc41643ebbe",
    "src/xmsg/java/org/xms/g/common/api/ResolvingResultCallbacks.java": "8d767413c976f73b8595eb955a9795c2c9b05798b452001edac652199d77ca8b",
    "src/xmsg/java/org/xms/g/common/api/Response.java": "e2c242ffd6d5be72b55770fa9866bb761b7f44592be194feef786121e9765e6d",
    "src/xmsg/java/org/xms/g/common/api/Result.java": "9807ee486bc04a8a7d447015965c0c31af4a42f6f826c4ebffda6612bf2d2199",
    "src/xmsg/java/org/xms/g/common/api/ResultCallback.java": "76fd900c32d11f62f08228cf8bf853ad2a5e632b63f7e52f0f13fcab505a1fdc",
    "src/xmsg/java/org/xms/g/common/api/ResultCallbacks.java": "ce1eebac6ae0813d7aac983b0aec1fd24c9f4ccf9bda7173005d19cef861e574",
    "src/xmsg/java/org/xms/g/common/api/ResultTransform.java": "e47b2abd97b453b553152a27ae5f7e2961928407db5ab37bf9309125913143eb",
    "src/xmsg/java/org/xms/g/common/api/Scope.java": "c37f9c7bd7c2d5d2c7e4a22a3233f6a5e79af2a26f12903dbd07909386b1164d",
    "src/xmsg/java/org/xms/g/common/api/Status.java": "620dcbeba120e55b4c92c11acb953877201d62f648ed54e7a65564e1a28f025b",
    "src/xmsg/java/org/xms/g/common/api/TransformedResult.java": "453d0be375951002c042d7953ebbee6d4ebcb10e50020787cb72dc608eb5b7b0",
    "src/xmsg/java/org/xms/g/common/api/UnsupportedApiCallException.java": "ce98687445ce1a94bfd540917a98c0c04a59cbde3c98f6b2dc8db1b016e43051",
    "src/xmsg/java/org/xms/g/common/data/AbstractDataBuffer.java": "cf5ed738785e327e7fe0d43383a2f7accdc5686257eb5659cd0dc26887b0dbec",
    "src/xmsg/java/org/xms/g/common/data/DataBuffer.java": "7bda90e81a36062f91fcc53388f843e3ae73ce078472a6c5c2bb3906515dc0f4",
    "src/xmsg/java/org/xms/g/common/data/DataBufferObserver.java": "092520532f1d13762366f064e1b15419117f731c123170a8eb023e2d4207b118",
    "src/xmsg/java/org/xms/g/common/data/DataBufferObserverSet.java": "cccc7d492d02f8aac0310d7739109c6f11d48a237cf7f774c8517a3434bb95a5",
    "src/xmsg/java/org/xms/g/common/data/DataBufferUtils.java": "8402ef03dde5fb8d564025eec4af54cfedfa0050ace77d2beab070b5a381f33e",
    "src/xmsg/java/org/xms/g/common/data/Freezable.java": "884356d873989acdb98ac97f1bfc28206d2403e6c31f0be7b04e224c6e913a90",
    "src/xmsg/java/org/xms/g/common/data/FreezableUtils.java": "d7a0dd649ca88766d6fb0a486a08d894568b805ea031fa916394c229731330a8",
    "src/xmsg/java/org/xms/g/common/images/ImageManager.java": "92f9de9a5d9961a08bf84690948ad90684120182be99c2438e204c0d4b3ec751",
    "src/xmsg/java/org/xms/g/common/images/Size.java": "ce62fcc6eab1a5627438e7669582d44dcf9e9f35ff94a77979da8797f0becf4c",
    "src/xmsg/java/org/xms/g/common/images/WebImage.java": "0ded66140e6b6cfded18ee82d2638fa1e74a681a78fc6073477e5692c01951b0",
    "src/xmsg/java/org/xms/g/gcm/GcmNetworkManager.java": "f6050c5634ee160ec7004f126dade806b51d5cd3e5af21a98317a0e1e8be8c71",
    "src/xmsg/java/org/xms/g/gcm/GcmTaskService.java": "142176bf7e9bd49c9fd69f86dc6ed335cfde9e1cb338bbbf6f4295c7dcd12914",
    "src/xmsg/java/org/xms/g/gcm/OneoffTask.java": "4b61efd87a509d39793fd80cbbae1deaf6efe3b44e09a308137f12a19420918e",
    "src/xmsg/java/org/xms/g/gcm/PeriodicTask.java": "0fe41d74d36b01b942a61364fc96d7f1e1badb079884f4b680bd92d665d3882a",
    "src/xmsg/java/org/xms/g/gcm/Task.java": "2cb6f72c53883e768e8341f4dc0705be5fb9191c8786ebeb98d2abdcdf671457",
    "src/xmsg/java/org/xms/g/gcm/TaskParams.java": "74efdcfa86358786e0faff14d1b0daed233cf4d58931db396889d1c5fc79e43c",
    "src/xmsg/java/org/xms/g/iid/InstanceID.java": "819bb193e18e9cd2bff1bc7d8c399bcade647eb32ecfc9fcd88cf2078f68cc4a",
    "src/xmsg/java/org/xms/g/iid/InstanceIDListenerService.java": "6651fcd140639344ccec08b3ec3226af7194fb7ae7dab7f50beea5678dd74471",
    "src/xmsg/java/org/xms/g/location/ActivityRecognition.java": "45505d3b6b8e6bd693e7a61fe67a402532a4d02fbc80ab2264c65ea5050e6c6e",
    "src/xmsg/java/org/xms/g/location/ActivityRecognitionApi.java": "132c07a535117cf5f3bb8fbaaa6b1653545a25330f9a083fd0ea1c906c2cb6c2",
    "src/xmsg/java/org/xms/g/location/ActivityRecognitionClient.java": "79729ae6496fab9d9a21f23d85adc9c04e620df53ace61a95207cd1103b94131",
    "src/xmsg/java/org/xms/g/location/ActivityRecognitionResult.java": "db7b2015b9e561a75d2a0c6565d2db273084de9742d0d49a852e881e7a7e4644",
    "src/xmsg/java/org/xms/g/location/ActivityTransition.java": "fbddb8fb08400929c81aeb7663a9749cb0853b2293f236d71224939830083488",
    "src/xmsg/java/org/xms/g/location/ActivityTransitionEvent.java": "7a929918987bd1cf73f353a59a7df11670eddda8292ea562ba4d6136c656cb71",
    "src/xmsg/java/org/xms/g/location/ActivityTransitionRequest.java": "3751b7acfbe442002b33e8393d4b720107bb7bb1ad8a7a553b9250890227bf06",
    "src/xmsg/java/org/xms/g/location/ActivityTransitionResult.java": "23b1605a8e98f81c5150dddae997e554f8c64c0f77b2fe65a00c2af3b1e05555",
    "src/xmsg/java/org/xms/g/location/DetectedActivity.java": "1d8e120acdf6347d433654cf4e815ae2325f52787f57bb5b6c4a65c937a2a97c",
    "src/xmsg/java/org/xms/g/location/FusedLocationProviderApi.java": "c812431e23dd3abb46b9517ec6dccb874ae60485a4b77bd75d3ff84412ac254f",
    "src/xmsg/java/org/xms/g/location/FusedLocationProviderClient.java": "ea3099f9fba7f6f559bdc23b73b410072c25bf374205feee4a86f5eb373fe0a7",
    "src/xmsg/java/org/xms/g/location/Geofence.java": "f58db420ca002676ae49f27acb45f664da8db0a1b65ba51e986078cc3bfc076c",
    "src/xmsg/java/org/xms/g/location/GeofenceStatusCodes.java": "f383911caa28b418eaa85727ee8611483a5b9b8fa46eb5c7d427a4c82d802eb1",
    "src/xmsg/java/org/xms/g/location/GeofencingApi.java": "74e0466410387395bc7c415f783f3ce43d08576fb389e63ea7be31ccf5a494ca",
    "src/xmsg/java/org/xms/g/location/GeofencingClient.java": "700ed805d5aa56ad82d8d4e49a65ebf96f7b44c94660e464db2df8454dce0830",
    "src/xmsg/java/org/xms/g/location/GeofencingEvent.java": "47453c6579fb8d87db9f082b9f7105861c495a923ff4f24c6388814f8349579d",
    "src/xmsg/java/org/xms/g/location/GeofencingRequest.java": "5ffbdf34958339f8f55a2d365d12217435672e84956543ae9c80df08fabc0909",
    "src/xmsg/java/org/xms/g/location/LocationAvailability.java": "4979dd0e09e84be4258cd083e5652d8cd1db8e7f461d2df377910becd76f2c36",
    "src/xmsg/java/org/xms/g/location/LocationCallback.java": "d005eb86e8ba2cf2ae0db782814b449227412531b4819bbd8145cf2eab3e26ca",
    "src/xmsg/java/org/xms/g/location/LocationListener.java": "70418bf7f4eb9ff0fed9b09c508b14670d1dc7b20cb479b82ff5ab4324cd3763",
    "src/xmsg/java/org/xms/g/location/LocationRequest.java": "801f741be4643efb6cf169adef342066dcd69e7e84b2dd6c1831ea5f31a8f0ff",
    "src/xmsg/java/org/xms/g/location/LocationResult.java": "03f00c24bdced9ab46bb17f540b02cd8e3c8b10c10603831027108292f6a459c",
    "src/xmsg/java/org/xms/g/location/LocationServices.java": "e0245ca54646ea80e0d994c703b5c9306a336c6dfb1c84ffad82e0a57c4fe005",
    "src/xmsg/java/org/xms/g/location/LocationSettingsRequest.java": "5ac457382724acd85b93e6a424d4513a67ed70760153cd246bdd69b47c06559e",
    "src/xmsg/java/org/xms/g/location/LocationSettingsResponse.java": "f3ad2c8c27d675693f0277eed5c63ae57e7b2dd78926ce092f2c1561595f6f7c",
    "src/xmsg/java/org/xms/g/location/LocationSettingsResult.java": "a27cbc06f29753aa1b8ef8bac76b70f5a1a5c7c66c9931dd6dce97df3fd15deb",
    "src/xmsg/java/org/xms/g/location/LocationSettingsStates.java": "feccb096d736e29f251c39e3d114bbe7fd628084a8a896964193fa7f0fc9f34f",
    "src/xmsg/java/org/xms/g/location/LocationSettingsStatusCodes.java": "33626f7749776d30d8bd2d991400d3460942d53211f69d9c634bb169b027e3cb",
    "src/xmsg/java/org/xms/g/location/LocationStatusCodes.java": "6d35a265db9bf13defbf2fba77aadec80a8d55b106655111a17ad022148f2572",
    "src/xmsg/java/org/xms/g/location/SettingsApi.java": "a66542a60d7e1b56c43ad42829592c7fe6f4a9bcefa0d49421f4f6893d0afb83",
    "src/xmsg/java/org/xms/g/location/SettingsClient.java": "c87decf1cf61b654fa802f916660da0ed2d590dfcf2f6689a7c3ece3ec78e0ed",
    "src/xmsg/java/org/xms/g/measurement/AppMeasurementContentProvider.java": "98a600406c9cc614f16f8d74464857f4b374d8f65997ca85229f107a4b8306fb",
    "src/xmsg/java/org/xms/g/measurement/AppMeasurementInstallReferrerReceiver.java": "33fb0c77ab91e50697a5a449bf2afd0692559578243738f892d7385f8f9c5c6e",
    "src/xmsg/java/org/xms/g/measurement/AppMeasurementJobService.java": "ae4d5f48b0ea8bf02478b230847a1b5b42874495b681382af04533f17ab12604",
    "src/xmsg/java/org/xms/g/measurement/AppMeasurementReceiver.java": "8f1e21eb791cbd0d07ce1fcdf855e05d6863ca3aead60673062819253200daa6",
    "src/xmsg/java/org/xms/g/measurement/AppMeasurementService.java": "476b11f2c2387c3b5a83878d29f775f67d55678c5b91e7fcfd31bbec414f3bf5",
    "src/xmsg/java/org/xms/g/security/ProviderInstaller.java": "760f3d05c574e9189b0d527840b10116b9f2582c073a6a2561b6b1b489f063ba",
    "src/xmsg/java/org/xms/g/tasks/CancellationToken.java": "4aa15e33512ba7962407557375aedb85fadd438cbfd09158a6616fabbbbcb653",
    "src/xmsg/java/org/xms/g/tasks/CancellationTokenSource.java": "5c51c57ffb5fe76b8e4aaaf2ebc534cf7cbbe65c01d3965925b2fb4171bd3f55",
    "src/xmsg/java/org/xms/g/tasks/Continuation.java": "2fe074d38b5c14a756eb16c93070e3f4375293cd31f4fc68edfd0e083d170365",
    "src/xmsg/java/org/xms/g/tasks/OnCanceledListener.java": "8116c2335074e3476021628c0f7790b74f8f0d613145de9029a391fbe3e65346",
    "src/xmsg/java/org/xms/g/tasks/OnCompleteListener.java": "2ad25d410cf5e580f44b048b0baa7862315adba01cdb0c511795583b7c9b788a",
    "src/xmsg/java/org/xms/g/tasks/OnFailureListener.java": "02a886386cfcace1b53bfc2765d1b07ae18f92c0c036257095677ba28538a73e",
    "src/xmsg/java/org/xms/g/tasks/OnSuccessListener.java": "bd70cf08030c0e811b76b15a61e1b90632ec6531f4cc944ec5fcf8149d2ce5c2",
    "src/xmsg/java/org/xms/g/tasks/OnTokenCanceledListener.java": "6693d6cc043380227d9a60a29966750318a92978ee8bf1035fca36e570e4f26a",
    "src/xmsg/java/org/xms/g/tasks/RuntimeExecutionException.java": "e2e341d059de4d3bac0e851a7d972f6aa6f643afe68e37c2e2116fcd03cbf27a",
    "src/xmsg/java/org/xms/g/tasks/SuccessContinuation.java": "bc9945b0a59f1d0fedf6186cd6091052b66901070aae9bc0a704e759215242cd",
    "src/xmsg/java/org/xms/g/tasks/Task.java": "ceb571b4e2366a20627bb2397296e18a7346caeade056cdbe06ace7142ab36b4",
    "src/xmsg/java/org/xms/g/tasks/TaskCompletionSource.java": "b39d7775b5b5cc21b0ddb2a1139ae57787b5fd4f707a18bd3d8998181a0fe790",
    "src/xmsg/java/org/xms/g/tasks/TaskExecutors.java": "09866fb7edae41eb451e9c204e07b06c22eb7f12d7e78df9b608e55695d28036",
    "src/xmsg/java/org/xms/g/tasks/Tasks.java": "732d1bcdf5f9549e12cd7f63367eec33a9347f31e118c806c5e5ad8a9038c2a4",
    "src/xmsg/java/org/xms/g/utils/BridgeMethodUtils.java": "5152b2c1775c3730c5e19735be43cb74ec98555d02c10deb0baf348d658b0937",
    "src/xmsg/java/org/xms/g/utils/Function.java": "75088211117a22c222761168e86e3fad4c3c8e9bc41d1526fcfe8d06bd23b258",
    "src/xmsg/java/org/xms/g/utils/GlobalEnvSetting.java": "2e715c8c2fda058c93861aa2eab4032af70696c63b02009c1046afd40084b494",
    "src/xmsg/java/org/xms/g/utils/Parameter.java": "8deb429983ed3d06f3d3fc2b55b34a73638d7ea1158cd309eb38201b1524eebd",
    "src/xmsg/java/org/xms/g/utils/TypeNode.java": "aebcf269cb600b4baf8638d2ea096c5af0148e1985e35aafbe25d0c0d7085f26",
    "src/xmsg/java/org/xms/g/utils/Utils.java": "bcad44db63b0c83b9f51825567cdb38a33d36b4be250bd03c5f5060dc997a085",
    "src/xmsg/java/org/xms/g/utils/XBox.java": "a0a1833d59123d7b8246d4af41931eccdbc202c2ff0ee3c4a96c69e889f71bc5",
    "src/xmsg/java/org/xms/g/utils/XEnum.java": "ad9de66ae489c6c6e97eecf28739b830b79c9ceecae6d435ee0a3b6535cd7b33",
    "src/xmsg/java/org/xms/g/utils/XGettable.java": "d470886da50460c8cd912464ab04073f48da78090a8787911b1b976ee0eb2dd6",
    "src/xmsg/java/org/xms/g/utils/XInterface.java": "14bb0533d9ba2744245f2538a0ab1174e6fcfbf11bc20403b736e76dd472be64",
    "src/xmsg/java/org/xms/g/utils/XObject.java": "1c176311628c4e7d0559606df589832a1104ba9205d96dc8a5a8313ff8e4ac4b",
    "src/xmsg/java/org/xms/g/utils/XmsLog.java": "9478dc3315095bfa413941c7bc3cf29abf8e591e8fecf9c57543532e37458775",
    "src/xmsgh/java/org/xms/f/ExtensionApiNotAvailableException.java": "2f2572e0ce2b932242fe6fc07fde7a30dd5df10b7b77cd4cedcadad80273bebd",
    "src/xmsgh/java/org/xms/f/ExtensionApp.java": "3637c680d6db4e1884ec7e30b8517b4865c3a247fc1d157ce7ca4a2c8a6e8569",
    "src/xmsgh/java/org/xms/f/ExtensionException.java": "07051dd7f7277556b53ec89e14b17823446f418ec8033a101afdeabcb39d3e4d",
    "src/xmsgh/java/org/xms/f/analytics/ExtensionAnalytics.java": "91558dbd92828766dc38e932ba596ff93dc072e720de19caeaf1daf5a7e70f58",
    "src/xmsgh/java/org/xms/f/iid/ExtensionInstanceId.java": "6d2c63cfff56cfaedc539fe5f4455d7f7e48432d2ae5c5cd76aee3e57d70ad7b",
    "src/xmsgh/java/org/xms/f/iid/ExtensionInstanceIdReceiver.java": "8f5e92a2502b59998d9b631cef0dc8884dc4f66f61b5d81eb8fe2a38877ce7d1",
    "src/xmsgh/java/org/xms/f/iid/InstanceIdResult.java": "a5bcc9f2ed43d84ba0b8508051e2441eb2b15d482e304c27cdb32887f41c47cc",
    "src/xmsgh/java/org/xms/f/messaging/ExtensionMessaging.java": "4dcba7e101edb09035398b47e1f92cc04f3b0080bd9f068339cf9039c85a1f31",
    "src/xmsgh/java/org/xms/f/messaging/RemoteMessage.java": "748f829b89c62903cd44393a80d5cb917f8ed311f379c02e74b613903387bad0",
    "src/xmsgh/java/org/xms/f/messaging/SendException.java": "0bdc683545713726a0b2af80dbd5bf74df2d440ec792d7d4dad58c8b0903f996",
    "src/xmsgh/java/org/xms/g/actions/ItemListIntents.java": "3251a939525a7c965315ec09be7c4df734c0bcc0628b8b3d57804fb2e9cf152b",
    "src/xmsgh/java/org/xms/g/actions/NoteIntents.java": "e98bade94afdfeeba528869bfb0e570dab2ceafa19b2f194d07cfb4a30be35d7",
    "src/xmsgh/java/org/xms/g/actions/ReserveIntents.java": "eb33d3518abe5772453d834cdc8b77e31dbbd9d1d19a0fcea30e7aec4fe0b3f8",
    "src/xmsgh/java/org/xms/g/actions/SearchIntents.java": "f800d83f02f0c4cf2b16a68b01b3f43546e5b4a4d70211d25469eca2013ca517",
    "src/xmsgh/java/org/xms/g/analytics/AnalyticsJobService.java": "09742833df5b60972f8ff89ec04bd166df37a4edda5ef1465cd0e15abc43aad8",
    "src/xmsgh/java/org/xms/g/analytics/AnalyticsReceiver.java": "bf3496d75c802b20f53eaa4767b767bac1f369205034c9cfa62353310f6d930f",
    "src/xmsgh/java/org/xms/g/analytics/AnalyticsService.java": "7ed879f6b37eaf24d8307180a67f185939663fe3574db042d326ffa1de93ab7d",
    "src/xmsgh/java/org/xms/g/analytics/CampaignTrackingReceiver.java": "9609efee86f442433b977726c4dcc1e21fdd68a06630f468345b6e9a981eb148",
    "src/xmsgh/java/org/xms/g/analytics/CampaignTrackingService.java": "d659cbf82d2535f004ffd9d3af9fa869b55dfc111116c5cdc6b2cccd2af747f5",
    "src/xmsgh/java/org/xms/g/analytics/ExceptionParser.java": "b6e01f9bb669cc00e0e698e36ef017ccfd7245e146f0a6bb6da5c0d0a52436e6",
    "src/xmsgh/java/org/xms/g/analytics/ExceptionReporter.java": "50c4e344851ecb6954a0181eb244d2e5fa268c7fb8d3f4614eba75d16e87247f",
    "src/xmsgh/java/org/xms/g/analytics/ExtensionAnalytics.java": "a10eb37408fa309a1a39874e51fe0eebd2b71659a226b399c0e89616e1a08312",
    "src/xmsgh/java/org/xms/g/analytics/HitBuilders.java": "87c5a571214317ef6db9f1ef1a6cb1cf22a62d0a1858d2c170198a03827a824d",
    "src/xmsgh/java/org/xms/g/analytics/Logger.java": "63144752505cdf03481f436e5009d6a11944e734c57f1d74d0cfd15a2636cb30",
    "src/xmsgh/java/org/xms/g/analytics/StandardExceptionParser.java": "4cd1e3c8553dd1015ce58a1f3fbfdc167c28a23f2834ed79969be333cd1ed7fc",
    "src/xmsgh/java/org/xms/g/analytics/Tracker.java": "0a105f6609aa1b07c86b3e6e7f21031426edfba8ce0af56ae5c705518b123798",
    "src/xmsgh/java/org/xms/g/analytics/ecommerce/Product.java": "2971a5894be6b39a98ea32e527c27a905398bc3112489c2813fe1cd64f5c2b19",
    "src/xmsgh/java/org/xms/g/analytics/ecommerce/ProductAction.java": "02d573a7b7270eb29a77f9097779701adab7eeb14105b983ab46bd1323b692e2",
    "src/xmsgh/java/org/xms/g/analytics/ecommerce/Promotion.java": "c3284e46a451abecdf77e7cf1ab250d0580104846f219c3169d08a2db12e2b19",
    "src/xmsgh/java/org/xms/g/common/AccountPicker.java": "3112dcdf787a13f36dec96621429a87df3d9d338319619d1b55e51699e374c45",
    "src/xmsgh/java/org/xms/g/common/ConnectionResult.java": "70f52d62e2528d4ac901d3eecf3b481e2ab0feed7513dfa92fdaebe7a2965038",
    "src/xmsgh/java/org/xms/g/common/ErrorDialogFragment.java": "549d801e569567cac7f0d4337c94e767e27518add78b65ef7f19162397d85997",
    "src/xmsgh/java/org/xms/g/common/ExtensionApiAvailability.java": "b708b3e3483adb467f4270f9b099a04bd63000de33a46bb7a8f441fcca332ba6",
    "src/xmsgh/java/org/xms/g/common/ExtensionPlayServicesNotAvailableException.java": "edb9eadb6a301c3fcc7ffc5fdfa5cad92a89b24dd6844ec351fc82a8710543f0",
    "src/xmsgh/java/org/xms/g/common/ExtensionPlayServicesRepairableException.java": "f17d318a9dfc9cb6ac53e55d2b5bf3f84dbd322d19df528b2bb74a13d694e3a6",
    "src/xmsgh/java/org/xms/g/common/ExtensionPlayServicesUtil.java": "c35e8343cec1ed345dc6d84e5a63744457916bb8702df90553df15b46f122d72",
    "src/xmsgh/java/org/xms/g/common/Scopes.java": "d9189c5172dc384c014f04bac86c8493db514da769b1d3a9cd126b4d3ce1da2f",
    "src/xmsgh/java/org/xms/g/common/SupportErrorDialogFragment.java": "6d8daa15cb135fb1e5b93fb0876d97be7e745e2b6e9afa809bf81b51ad0fb69a",
    "src/xmsgh/java/org/xms/g/common/UserRecoverableException.java": "69971be9459c4a7a0eac84332ed582d9771cf7398033ed5f6cc9fb6a0c639041",
    "src/xmsgh/java/org/xms/g/common/api/Api.java": "0f11b271c7eeea40e43755cacd910d0922940219bb1767d9143f8c5449d06b7f",
    "src/xmsgh/java/org/xms/g/common/api/ApiException.java": "0555ef07741f22dcb5a6ec29392a9e2821b42b5df1f356a96df606272e056493",
    "src/xmsgh/java/org/xms/g/common/api/AvailabilityException.java": "ed20fb08e2fdab49f962978f9874ae98cc51d53d33d9417bce268fef2d21acdf",
    "src/xmsgh/java/org/xms/g/common/api/Batch.java": "1c3e8ca9b7eeb1885aeaffcf0a1a5b8b301c14aa0fec5fc41777cb00ca17bc22",
    "src/xmsgh/java/org/xms/g/common/api/BatchResult.java": "3961583818f52e76ad618f55df85eef8867a5b278373f07547ac3b05f3c6d846",
    "src/xmsgh/java/org/xms/g/common/api/BatchResultToken.java": "6b89453406749270d02c51281240e3d8639c96b58bd6fa1d2a62b332629e17b9",
    "src/xmsgh/java/org/xms/g/common/api/BooleanResult.java": "b7ffd67f3809f6d82414bf68c571ffadf172245757128202ad8a7b1ccf35741c",
    "src/xmsgh/java/org/xms/g/common/api/CommonStatusCodes.java": "6eafd24874c5a5160246f8774ee7917333d2231c328dcfaf00b83e2c4ef716d1",
    "src/xmsgh/java/org/xms/g/common/api/ExtensionApi.java": "c25f3443739d5e55e1457f6943a64afc3744830f6fcee4745ba4715828a1ede0",
    "src/xmsgh/java/org/xms/g/common/api/ExtensionApiClient.java": "1336d33a92476f565997da11415b4e5e6e8a7324a70c091a7822fe1563c8b203",
    "src/xmsgh/java/org/xms/g/common/api/HasApiKey.java": "d90d021df210b4b66b90fe21eab4ecba5e08cac658eead081cfd848d6549707f",
    "src/xmsgh/java/org/xms/g/common/api/OptionalPendingResult.java": "c1bcb9690ffc8c4bc83bbe6f77835fb2d6326d01c93d34c991145503e6a35a22",
    "src/xmsgh/java/org/xms/g/common/api/PendingResult.java": "be818370b8cf8317a8782533f14e3260c616af71cc20894e26f2f4b6afac64cb",
    "src/xmsgh/java/org/xms/g/common/api/PendingResults.java": "d4312ce29a6fcec2c21bb9e12114b24c685eea2df56304266448e1f131ba2f0e",
    "src/xmsgh/java/org/xms/g/common/api/Releasable.java": "e6773b6fea62dbd29e36fc08050fc65ec1e09e73d6a060f9ca5336687013b8be",
    "src/xmsgh/java/org/xms/g/common/api/ResolvableApiException.java": "16277e33fc353c3bc09ff65d32078b6f7c252e45bf5aea19e2664ed1eb5d3391",
    "src/xmsgh/java/org/xms/g/common/api/ResolvingResultCallbacks.java": "b0ddecec284d88ed74ec0785342ceb0a6c91b9edb4306dbb074294720e424dd8",
    "src/xmsgh/java/org/xms/g/common/api/Response.java": "4b2736d1d912a3c071c7347655ec04349faf65d3b6826d2973d2a3f8fc685f5a",
    "src/xmsgh/java/org/xms/g/common/api/Result.java": "1ec6f2d520b1d56ca9ee36c3cf42114c7e1768263db8db2d8deda8ac5ebe5423",
    "src/xmsgh/java/org/xms/g/common/api/ResultCallback.java": "36612f5d02ed4f1e87183ecb699f4896d1e268a6d16ebfe8313cc9511cc6e5aa",
    "src/xmsgh/java/org/xms/g/common/api/ResultCallbacks.java": "83bbbb858b38d22c8fa209057fe4ff86afde272ab652970ebeabdc583b348e78",
    "src/xmsgh/java/org/xms/g/common/api/ResultTransform.java": "9c73e631fed952d512e09083935f2000b71b8c6079a2da90c4685f1bd42900ef",
    "src/xmsgh/java/org/xms/g/common/api/Scope.java": "4f6a1d12213bd7bbd8e2a27cfd055aa557bd80378b8fa001bf741013efcdfd13",
    "src/xmsgh/java/org/xms/g/common/api/Status.java": "338cabf0f2b7f7fe28d3490ee7fe4e5ad7515ce4821f774ed362640c5ff2f7ed",
    "src/xmsgh/java/org/xms/g/common/api/TransformedResult.java": "d951d2f9cbed35e9399a5e748316b2b1dcab910a77c9b46bf3368b67caf3bf81",
    "src/xmsgh/java/org/xms/g/common/api/UnsupportedApiCallException.java": "997d51f145bade43931250842cb49e96f0e756b63ecf3650d4dbd0ccb573f3f6",
    "src/xmsgh/java/org/xms/g/common/data/AbstractDataBuffer.java": "b3fa40271828fca3c7f6e3a5f80f38a493c0c77918758405df88cf2e72222d07",
    "src/xmsgh/java/org/xms/g/common/data/DataBuffer.java": "b8f5acd0820c51aba6e303a1bdf7013b4e7f2853e679e23deada360d3ead70b2",
    "src/xmsgh/java/org/xms/g/common/data/DataBufferObserver.java": "d962197b3253f5e803706dc1f83b328dcbc62981070e74ae6035967b4684fd7a",
    "src/xmsgh/java/org/xms/g/common/data/DataBufferObserverSet.java": "cccc7d492d02f8aac0310d7739109c6f11d48a237cf7f774c8517a3434bb95a5",
    "src/xmsgh/java/org/xms/g/common/data/DataBufferUtils.java": "fe11273789cde9266c10f53665665cf1b466ec12d1af840ce50cce7f09d126b3",
    "src/xmsgh/java/org/xms/g/common/data/Freezable.java": "ac9fdc13601c406fe8100e5c45fbbeccca61e2c2c3714de7a1d506eddb91c9b3",
    "src/xmsgh/java/org/xms/g/common/data/FreezableUtils.java": "3a478c347bdc65680993915c834743b18186be18bccfefcab5202839d010755f",
    "src/xmsgh/java/org/xms/g/common/images/ImageManager.java": "6d12c8afcf1e45a6d5fd36481394bfb2b1f3b64dda4be9f58a2750a0f3f8a0cc",
    "src/xmsgh/java/org/xms/g/common/images/Size.java": "cb29688f81d706af16a217fb7abc1bc232ca3b8496594ef5e757e47269832216",
    "src/xmsgh/java/org/xms/g/common/images/WebImage.java": "daf2d3f449065c76cfb87eb41ca9bd50d05d6ebb6e373285b8de2ffa58c1d54b",
    "src/xmsgh/java/org/xms/g/gcm/GcmNetworkManager.java": "f6050c5634ee160ec7004f126dade806b51d5cd3e5af21a98317a0e1e8be8c71",
    "src/xmsgh/java/org/xms/g/gcm/GcmTaskService.java": "96063438e116cea5825750cec7530c4a5323742663226a817e05418937c4367c",
    "src/xmsgh/java/org/xms/g/gcm/OneoffTask.java": "4b61efd87a509d39793fd80cbbae1deaf6efe3b44e09a308137f12a19420918e",
    "src/xmsgh/java/org/xms/g/gcm/PeriodicTask.java": "0fe41d74d36b01b942a61364fc96d7f1e1badb079884f4b680bd92d665d3882a",
    "src/xmsgh/java/org/xms/g/gcm/Task.java": "2cb6f72c53883e768e8341f4dc0705be5fb9191c8786ebeb98d2abdcdf671457",
    "src/xmsgh/java/org/xms/g/gcm/TaskParams.java": "74efdcfa86358786e0faff14d1b0daed233cf4d58931db396889d1c5fc79e43c",
    "src/xmsgh/java/org/xms/g/iid/InstanceID.java": "819bb193e18e9cd2bff1bc7d8c399bcade647eb32ecfc9fcd88cf2078f68cc4a",
    "src/xmsgh/java/org/xms/g/iid/InstanceIDListenerService.java": "47800bea8c7e4d5e5e954c00f7879fa0d342a1da0f5b1bd4e90b31626c4a2d1a",
    "src/xmsgh/java/org/xms/g/location/ActivityRecognition.java": "72661bf5303ad6b32fc31e1fa5abbbc1f080121cd51f2a329f65b521d406f142",
    "src/xmsgh/java/org/xms/g/location/ActivityRecognitionApi.java": "ac3e16540195c9da8cc620b04b88725a1a75063f24e74e10e3cf6e4dc3d01c89",
    "src/xmsgh/java/org/xms/g/location/ActivityRecognitionClient.java": "9adacc6893100db5da1fc590b1b74f9f67bc854fd3315b33e567d04f9a507776",
    "src/xmsgh/java/org/xms/g/location/ActivityRecognitionResult.java": "6febff690efce8aa70b6f4e4d18b6f2422c977253e9855186d8719d7510607d4",
    "src/xmsgh/java/org/xms/g/location/ActivityTransition.java": "e778ae6a5a71a2ea92382d8cb14527f3058c96999f0c6c4bbc7522b4ee4947bf",
    "src/xmsgh/java/org/xms/g/location/ActivityTransitionEvent.java": "90e9d4176bd8f2d16c472ef56a346478cbeab9d78f67ac09e45335876941904e",
    "src/xmsgh/java/org/xms/g/location/ActivityTransitionRequest.java": "fc49128fff7a18ba9a12f010a066033d72d6a6e186d0401bbfab4c732e6d4b7a",
    "src/xmsgh/java/org/xms/g/location/ActivityTransitionResult.java": "6e966ea9d79bd39d5292235fdcb37b6ec20f123e154936bdda41c1e7dd322a35",
    "src/xmsgh/java/org/xms/g/location/DetectedActivity.java": "22b90e9aff11eac6c2404563581bdeb324953a14ed1374277b732c17cdc79c62",
    "src/xmsgh/java/org/xms/g/location/FusedLocationProviderApi.java": "7c30330ae728505073380ecaa95351df5e8e0d1f6a2b06c0c7918a47b01a14b0",
    "src/xmsgh/java/org/xms/g/location/FusedLocationProviderClient.java": "d69e535a7b29a007438a2894d0a182153f119353365c2a8a96578b72e5b5c59f",
    "src/xmsgh/java/org/xms/g/location/Geofence.java": "cb17adef0ac903482d4e62f01fb1c78bf279070240851e182217077be71d65b8",
    "src/xmsgh/java/org/xms/g/location/GeofenceStatusCodes.java": "7b6482a03d2476beb9f65589967f9176a2890dd145e7029eb63e19169d9c7842",
    "src/xmsgh/java/org/xms/g/location/GeofencingApi.java": "1b107b7d8be46296dfe18e6423c8da0b10b764779eebba093ac6c2ce06e3ee41",
    "src/xmsgh/java/org/xms/g/location/GeofencingClient.java": "468623661890a95c3bb9c9f2a473d6c668e865bc832604ad195c366ed466e07c",
    "src/xmsgh/java/org/xms/g/location/GeofencingEvent.java": "857fb57ccd414b71573b063ead6790e37396e5fcbf170a3dde17a968cce64e98",
    "src/xmsgh/java/org/xms/g/location/GeofencingRequest.java": "5b8496a1e8c92e4a65a2ba9decf41469694b1da4c91f8b469bfd3302c2734529",
    "src/xmsgh/java/org/xms/g/location/LocationAvailability.java": "ad2fc1813e645f7b9981af639b62334b478398b0bbf23366fe050b72bf8a78cb",
    "src/xmsgh/java/org/xms/g/location/LocationCallback.java": "df38e7d55189e4e94d53d24c8a326804ae90bec76cfd19ad5f3c00d0f9308da1",
    "src/xmsgh/java/org/xms/g/location/LocationListener.java": "a70eb4565d048d90dfc9828caa3ac3ec5541ed88e978ef7fcebcdfa8d57eb13f",
    "src/xmsgh/java/org/xms/g/location/LocationRequest.java": "5f6424f395e41277f10f766e4a1d5174be943844ba7d58bf55686e9cf4ebab90",
    "src/xmsgh/java/org/xms/g/location/LocationResult.java": "377e1d68c459242b6375045af0f766d36395d0e9d46c32903e97db1889713159",
    "src/xmsgh/java/org/xms/g/location/LocationServices.java": "d574635e13d9c254b22f3b2461451cf59be182b5230bec920e145c6db9e9c8c1",
    "src/xmsgh/java/org/xms/g/location/LocationSettingsRequest.java": "5ed7f01a9697053551c57c296c71ae9ca64355e9538c3adb85d51f4a5eb37bca",
    "src/xmsgh/java/org/xms/g/location/LocationSettingsResponse.java": "1c8492442ed616ed35e6d2534c0f195838b52e51eacccd5a90fe2d9b90c801ce",
    "src/xmsgh/java/org/xms/g/location/LocationSettingsResult.java": "c4d8b00ca395ff10d46faa1a9524aeffb731d11f35b80b79365cbb887cf23477",
    "src/xmsgh/java/org/xms/g/location/LocationSettingsStates.java": "01fd7eec1e66401542cbb64386892fa8f651dbfc41891ebef52a3a2b2ffaa376",
    "src/xmsgh/java/org/xms/g/location/LocationSettingsStatusCodes.java": "9616dcdcd5e8e8c20ccedcbd9a0370f12e72654a10bc0d04069ead934a27f8aa",
    "src/xmsgh/java/org/xms/g/location/LocationStatusCodes.java": "ce791a3a49c58835df2365a180b1e581758cc4708701e6219e2889557fd4a6ce",
    "src/xmsgh/java/org/xms/g/location/SettingsApi.java": "4d0fb8cb8c46c32b9d2ecad272a342eae1b0f2d07b090f5b89bd2440963fbdb9",
    "src/xmsgh/java/org/xms/g/location/SettingsClient.java": "bbecd524886f98789af9f08145047dbf83e35ecf9d00cbacebed5e9546ca13d0",
    "src/xmsgh/java/org/xms/g/measurement/AppMeasurementContentProvider.java": "3ae71da9133f84bd13efe055574eb7e374064bc05519ec2553d782648b2b4118",
    "src/xmsgh/java/org/xms/g/measurement/AppMeasurementInstallReferrerReceiver.java": "dc94f76db2124a5f5164f2ea33f08a600b7c8988b1b4f6fc382d812c51888059",
    "src/xmsgh/java/org/xms/g/measurement/AppMeasurementJobService.java": "f340e2b777ed03e180fc584b4107635da16bdc4aa8798972e6f0a5f21f0d8928",
    "src/xmsgh/java/org/xms/g/measurement/AppMeasurementReceiver.java": "3affd2436d9d8d6d5a55ac7c4e6eb7f010c4840e34bb286cb4c65be30126e819",
    "src/xmsgh/java/org/xms/g/measurement/AppMeasurementService.java": "aa91cf27c736ec7f6226b4dea21214df66835e8bef7a71b41395987dce345f6f",
    "src/xmsgh/java/org/xms/g/security/ProviderInstaller.java": "2c4b78ed4c213735d51299965c6f70863ebea2912edda0b8129cf4f63ef3ad41",
    "src/xmsgh/java/org/xms/g/tasks/CancellationToken.java": "c0f6591efa1ed88d4e2752bbbb3742a81fa2f4f3c39cdf5f93f660c08c151947",
    "src/xmsgh/java/org/xms/g/tasks/CancellationTokenSource.java": "2afff97ef2615a59cbffccd5554746aabce61ba31146689d665ee67dc042226f",
    "src/xmsgh/java/org/xms/g/tasks/Continuation.java": "ccf7fbc139eb50018b1cb12336579e31a2a7b2f484e8ddeb93154f46718ac774",
    "src/xmsgh/java/org/xms/g/tasks/OnCanceledListener.java": "3e010f0ce37577bb288291bdeeea87a26f3b9e108c5613730b0611b4ab168b55",
    "src/xmsgh/java/org/xms/g/tasks/OnCompleteListener.java": "5dd046b5255a0d5203f9008fb2c1ce0085db4366b42448448d5b78d6cb583f4f",
    "src/xmsgh/java/org/xms/g/tasks/OnFailureListener.java": "251cd4acb0f5dd92e6dc5022993e5fdfbc1d64359d25f4b8e0933a28e310662e",
    "src/xmsgh/java/org/xms/g/tasks/OnSuccessListener.java": "639610792d03069caf79cb999279b39be1be4c6dbb2af5e5f029dd2168a8c66c",
    "src/xmsgh/java/org/xms/g/tasks/OnTokenCanceledListener.java": "70b820ef2752ecc1bd90c93c6214c7eb0959af077650d8efbf4fbf16dd0db41f",
    "src/xmsgh/java/org/xms/g/tasks/RuntimeExecutionException.java": "68187c737fe7f16c6799f14ea7c099c3b4778baa74de41ecb67e3fed68fe07d9",
    "src/xmsgh/java/org/xms/g/tasks/SuccessContinuation.java": "081412327b2b8c06c655a11b0cc8da80684df177814170b64530671c2e27a0dc",
    "src/xmsgh/java/org/xms/g/tasks/Task.java": "54dc0298f2ee339cc9e9ba375a9de5e15fb1e4092f287886aa7038a67647a316",
    "src/xmsgh/java/org/xms/g/tasks/TaskCompletionSource.java": "780d0620113ff4b48f5ffa2cdbf938535ed0bc04517615e455bbffd32c5929ec",
    "src/xmsgh/java/org/xms/g/tasks/TaskExecutors.java": "959b62b0f5e6a02fa514425e0fc263eb12808f0c4636eb4f7620577096d7f18c",
    "src/xmsgh/java/org/xms/g/tasks/Tasks.java": "0fbceee859cf7be36877f54bed20546f2d01e3dab3bc5bd52cd50690c57fb42f",
    "src/xmsgh/java/org/xms/g/utils/BridgeMethodUtils.java": "5152b2c1775c3730c5e19735be43cb74ec98555d02c10deb0baf348d658b0937",
    "src/xmsgh/java/org/xms/g/utils/Function.java": "75088211117a22c222761168e86e3fad4c3c8e9bc41d1526fcfe8d06bd23b258",
    "src/xmsgh/java/org/xms/g/utils/GlobalEnvSetting.java": "77f519ff1355af6d18e185f7fcdb7d128821d445f7dd9051658f8ffa404858b8",
    "src/xmsgh/java/org/xms/g/utils/Parameter.java": "8deb429983ed3d06f3d3fc2b55b34a73638d7ea1158cd309eb38201b1524eebd",
    "src/xmsgh/java/org/xms/g/utils/TypeNode.java": "aebcf269cb600b4baf8638d2ea096c5af0148e1985e35aafbe25d0c0d7085f26",
    "src/xmsgh/java/org/xms/g/utils/Utils.java": "1359002e51305b90ff7a424151f4d5dcfd6af559e1dad2aa045eae5598247549",
    "src/xmsgh/java/org/xms/g/utils/XBox.java": "fea5064bc268de75ff69e562f1506223b988193da046c82fbecdca0104fa022d",
    "src/xmsgh/java/org/xms/g/utils/XEnum.java": "d79169cd3796054f66bf1017022ff66da99f85f6f0a46873acf334d89a769ce4",
    "src/xmsgh/java/org/xms/g/utils/XGettable.java": "6a6cee5bbd8f9be1e967c1c182f114af1865a9579a762838adbf6dafd94910fa",
    "src/xmsgh/java/org/xms/g/utils/XInterface.java": "14bb0533d9ba2744245f2538a0ab1174e6fcfbf11bc20403b736e76dd472be64",
    "src/xmsgh/java/org/xms/g/utils/XObject.java": "3633e46a51aa141ba1d72cbb14ab0d6489cce20d7c676eda02eb4ca7b9011773",
    "src/xmsgh/java/org/xms/g/utils/XmsLog.java": "9478dc3315095bfa413941c7bc3cf29abf8e591e8fecf9c57543532e37458775",
    "src/xmsh/java/org/xms/f/ExtensionApiNotAvailableException.java": "2f2572e0ce2b932242fe6fc07fde7a30dd5df10b7b77cd4cedcadad80273bebd",
    "src/xmsh/java/org/xms/f/ExtensionApp.java": "3637c680d6db4e1884ec7e30b8517b4865c3a247fc1d157ce7ca4a2c8a6e8569",
    "src/xmsh/java/org/xms/f/ExtensionException.java": "0a23d17f9ade040013bb4e72e68fb27d2687cc860a77d44f979b6bfba2a10183",
    "src/xmsh/java/org/xms/f/analytics/ExtensionAnalytics.java": "ca5af1ad1869451b88fec9ca2cd9ac7a1debfac79050d632aa9f4bb3e74381de",
    "src/xmsh/java/org/xms/f/iid/ExtensionInstanceId.java": "3cf49567e7f9423a6090a8840ee53c9650dcfb39f54dd4661e4d32af9ae63dc8",
    "src/xmsh/java/org/xms/f/iid/ExtensionInstanceIdReceiver.java": "b6c80dcf3c80c54c560663bd50561c28720d907cb91bdb410395fd7090d03213",
    "src/xmsh/java/org/xms/f/iid/InstanceIdResult.java": "2bc117eeaba9f188108e46683a26ebe3a153ae2569e59b1190dcb2c9651dd3a0",
    "src/xmsh/java/org/xms/f/messaging/ExtensionMessaging.java": "cfce7614ae4a4d8b6a726b7da06f4bc4a3434a59f83ef6956cfe2eda6c3a424e",
    "src/xmsh/java/org/xms/f/messaging/RemoteMessage.java": "5f9c4d8e8d63357703ed7ca1d81aa92e9fc015f62a688f23d3fb999a4e8e8769",
    "src/xmsh/java/org/xms/f/messaging/SendException.java": "1ab8d44f62302ed82b964fddf241ea1bf6e8019d654edc346ced058a5f0d5418",
    "src/xmsh/java/org/xms/g/actions/ItemListIntents.java": "3251a939525a7c965315ec09be7c4df734c0bcc0628b8b3d57804fb2e9cf152b",
    "src/xmsh/java/org/xms/g/actions/NoteIntents.java": "e98bade94afdfeeba528869bfb0e570dab2ceafa19b2f194d07cfb4a30be35d7",
    "src/xmsh/java/org/xms/g/actions/ReserveIntents.java": "eb33d3518abe5772453d834cdc8b77e31dbbd9d1d19a0fcea30e7aec4fe0b3f8",
    "src/xmsh/java/org/xms/g/actions/SearchIntents.java": "5a749858f2f6b976c4b098cdd8cfc5ea5757dbfcce8c285df5cf826691f9e5df",
    "src/xmsh/java/org/xms/g/analytics/AnalyticsJobService.java": "8ff09caa7fadd334d5da3c9850abb40188428c0e2fd311d1bdcdcdc8a558397d",
    "src/xmsh/java/org/xms/g/analytics/AnalyticsReceiver.java": "748d0211f4a455df76fa58e3c2af08399102762c0ce4e44a496a47d0f64de357",
    "src/xmsh/java/org/xms/g/analytics/AnalyticsService.java": "a861594ccfab8533cba374481ce3b38655a644ab9f76ed883cacdd71107ca4b1",
    "src/xmsh/java/org/xms/g/analytics/CampaignTrackingReceiver.java": "db32cadd80ec731437007e85a4e29781610fb29a644fb9efcd98e3d5eaa77cf4",
    "src/xmsh/java/org/xms/g/analytics/CampaignTrackingService.java": "f74e90824ea8f684772fa22bade8e6d669a8d74406bf4fc00a31b48ae4d86395",
    "src/xmsh/java/org/xms/g/analytics/ExceptionParser.java": "d2522518e4a5b29c2ae979c9a4605a80654d601361bb02b9767f46a849c42d95",
    "src/xmsh/java/org/xms/g/analytics/ExceptionReporter.java": "50c4e344851ecb6954a0181eb244d2e5fa268c7fb8d3f4614eba75d16e87247f",
    "src/xmsh/java/org/xms/g/analytics/ExtensionAnalytics.java": "a10eb37408fa309a1a39874e51fe0eebd2b71659a226b399c0e89616e1a08312",
    "src/xmsh/java/org/xms/g/analytics/HitBuilders.java": "87c5a571214317ef6db9f1ef1a6cb1cf22a62d0a1858d2c170198a03827a824d",
    "src/xmsh/java/org/xms/g/analytics/Logger.java": "c51b029c2ff38780b2f45529e4a136b9e397163e4ae5474bc0d2df36b9ab5b6e",
    "src/xmsh/java/org/xms/g/analytics/StandardExceptionParser.java": "4cd1e3c8553dd1015ce58a1f3fbfdc167c28a23f2834ed79969be333cd1ed7fc",
    "src/xmsh/java/org/xms/g/analytics/Tracker.java": "0a105f6609aa1b07c86b3e6e7f21031426edfba8ce0af56ae5c705518b123798",
    "src/xmsh/java/org/xms/g/analytics/ecommerce/Product.java": "2971a5894be6b39a98ea32e527c27a905398bc3112489c2813fe1cd64f5c2b19",
    "src/xmsh/java/org/xms/g/analytics/ecommerce/ProductAction.java": "02d573a7b7270eb29a77f9097779701adab7eeb14105b983ab46bd1323b692e2",
    "src/xmsh/java/org/xms/g/analytics/ecommerce/Promotion.java": "c3284e46a451abecdf77e7cf1ab250d0580104846f219c3169d08a2db12e2b19",
    "src/xmsh/java/org/xms/g/common/AccountPicker.java": "3112dcdf787a13f36dec96621429a87df3d9d338319619d1b55e51699e374c45",
    "src/xmsh/java/org/xms/g/common/ConnectionResult.java": "24f2f58c0a280a5115035f5d5c0877c0ee77667ba9902ed75c86a98716cffba1",
    "src/xmsh/java/org/xms/g/common/ErrorDialogFragment.java": "03084c1703b9662fa68d457caeb730939eaa165110a502a9856f1241c50ec256",
    "src/xmsh/java/org/xms/g/common/ExtensionApiAvailability.java": "f336ad243714159ef860ec6f14136c2fb4d310dc4d9c7b440899b26bcd58c3d7",
    "src/xmsh/java/org/xms/g/common/ExtensionPlayServicesNotAvailableException.java": "543ef1dca38da9fe4ebe23c991312087d5d5930d8cac91a79ebdd81a25cea260",
    "src/xmsh/java/org/xms/g/common/ExtensionPlayServicesRepairableException.java": "d5279565c52aec539b006dd8fb3d14efec501c4635268f3508e148df45d9363d",
    "src/xmsh/java/org/xms/g/common/ExtensionPlayServicesUtil.java": "4f752a46276264b91fe147482bf688832570bdc9fdae86afca6c61045186bdf0",
    "src/xmsh/java/org/xms/g/common/Scopes.java": "d9189c5172dc384c014f04bac86c8493db514da769b1d3a9cd126b4d3ce1da2f",
    "src/xmsh/java/org/xms/g/common/SupportErrorDialogFragment.java": "11fd5b2047ef5cb21c48f8d7c4253ce2ff3c018b17ea916e518ef9faa4fae5cc",
    "src/xmsh/java/org/xms/g/common/UserRecoverableException.java": "59e4c01ff64a664dbcbde9a9129bce9db6ac1d2c1fcacb024ed82b8984bf4806",
    "src/xmsh/java/org/xms/g/common/api/Api.java": "9a9c7836cd4a74a5a145c1c8256bed08f3d2dc84de4a0aa9660ce8870069d3bf",
    "src/xmsh/java/org/xms/g/common/api/ApiException.java": "fbb3e0560ea1c091fdfd71ac515a49d9a65b87fdcd3610e6a66eb5db8ee2d977",
    "src/xmsh/java/org/xms/g/common/api/AvailabilityException.java": "9c4e9dedac66111fbc365e9834e76f74a2a2e7d46fd73d259962759a679de76a",
    "src/xmsh/java/org/xms/g/common/api/Batch.java": "1c3e8ca9b7eeb1885aeaffcf0a1a5b8b301c14aa0fec5fc41777cb00ca17bc22",
    "src/xmsh/java/org/xms/g/common/api/BatchResult.java": "3961583818f52e76ad618f55df85eef8867a5b278373f07547ac3b05f3c6d846",
    "src/xmsh/java/org/xms/g/common/api/BatchResultToken.java": "9f8704be27571d55bc9b1d9180764049751d73899a26695997b8762bc72a8888",
    "src/xmsh/java/org/xms/g/common/api/BooleanResult.java": "cbcaf5a475c69eff0b7f970ef036271b26c7f5b5c00b6fe3457cfb39b4aa6853",
    "src/xmsh/java/org/xms/g/common/api/CommonStatusCodes.java": "7b70c1c3d6a2fb2ac7f5b771193345f213ec7f3ce123594f9686902e04ee203e",
    "src/xmsh/java/org/xms/g/common/api/ExtensionApi.java": "cc42e7e46d983331cbf5efc445770e1b88b8f48df9fc460fc0ba456a156d621e",
    "src/xmsh/java/org/xms/g/common/api/ExtensionApiClient.java": "991a0ceaef9ac97aea645c4912fc14811950a5a9e05d14fb5e956de74ac4313e",
    "src/xmsh/java/org/xms/g/common/api/HasApiKey.java": "16d6de56458cca29dabd2000b03cb9cc12f7b0c403b51c037d63441d60dd59e1",
    "src/xmsh/java/org/xms/g/common/api/OptionalPendingResult.java": "fb5cbf3c04fc6e7c06a8893297675770b5bf1da74df9dae1c0ff48fb9870d561",
    "src/xmsh/java/org/xms/g/common/api/PendingResult.java": "5f61b8d2a66baa723f3b67318f57c3acba61f33908a9ef6ae4908b467e2317d0",
    "src/xmsh/java/org/xms/g/common/api/PendingResults.java": "293a11daa9efff9f2f417ea68850b084cb84362ac5a1142122cbee01389577ac",
    "src/xmsh/java/org/xms/g/common/api/Releasable.java": "e65d716940a07e0c64493de98d73f8e273851b1a2cd1adcc78d8f978980a7dc9",
    "src/xmsh/java/org/xms/g/common/api/ResolvableApiException.java": "bb8a72c7f850ed5677cc1115b5ac314f89a259f894187d5cab2e21c1d0e4785a",
    "src/xmsh/java/org/xms/g/common/api/ResolvingResultCallbacks.java": "00fd97fc9f7cf94727a5b8044ddbcaba10ecae55fecde6c59e786dca3bf18166",
    "src/xmsh/java/org/xms/g/common/api/Response.java": "1d7c708c918c91b2b6cd59a0e1c7930fba941e62df9def4cd123d96bb7ddda50",
    "src/xmsh/java/org/xms/g/common/api/Result.java": "7002eaf70a3258d938a0efa456c45685a4f51e18a85cafa0fcaaa0540756c7d2",
    "src/xmsh/java/org/xms/g/common/api/ResultCallback.java": "9049cc270c06b7ad90275074799d1854b8eb3313a06cc3943a35092fb34c2a6a",
    "src/xmsh/java/org/xms/g/common/api/ResultCallbacks.java": "261dd3b43a98f2283e583ee6dab1f4b8b33bb7dcc2acb650cb8447fab5041d4d",
    "src/xmsh/java/org/xms/g/common/api/ResultTransform.java": "9e75c9a8d0c1e498bc559a890e94cefa564277940d68cb9be61cd6c009573751",
    "src/xmsh/java/org/xms/g/common/api/Scope.java": "a9adbff6ed53ead2fc72b34cf54c6c672a754efaf4473b13c82f8a7b537ea12a",
    "src/xmsh/java/org/xms/g/common/api/Status.java": "a52ce34726892801c85a8ab371c4ca8ff107bbd0fd6a7887c97d8cc144f491cb",
    "src/xmsh/java/org/xms/g/common/api/TransformedResult.java": "2aca12e9604afa341a8eabd5579da57f113f88bdfa7653253d6184a2408dd112",
    "src/xmsh/java/org/xms/g/common/api/UnsupportedApiCallException.java": "06b6967b514c316374299c6b12dcd4c1dd30a3582f1750544c25377364aaeda8",
    "src/xmsh/java/org/xms/g/common/data/AbstractDataBuffer.java": "e0f94cb0cdf5d984d7961bb83fb4a69739a9d9e476d6e53987655338e4b793fa",
    "src/xmsh/java/org/xms/g/common/data/DataBuffer.java": "cf7a88a3c9b471ff497a9d6101b170e45d698caf9f4b45c5b76d1db876f2de05",
    "src/xmsh/java/org/xms/g/common/data/DataBufferObserver.java": "beff1009618863b82239b8cc519d1dc46ec5f179aabc93f6e4a5bd74ccf854e9",
    "src/xmsh/java/org/xms/g/common/data/DataBufferObserverSet.java": "cccc7d492d02f8aac0310d7739109c6f11d48a237cf7f774c8517a3434bb95a5",
    "src/xmsh/java/org/xms/g/common/data/DataBufferUtils.java": "b0f10960f62b29d21583a4786eb298d0298372bd1f20e6909ece4d6210ca73d2",
    "src/xmsh/java/org/xms/g/common/data/Freezable.java": "454cd3a3f11fe7a27f17ce3240aebec7995d6b1ae66f828c729a4627663d29c5",
    "src/xmsh/java/org/xms/g/common/data/FreezableUtils.java": "6bdcdd8d7f680356cfa12eef63bf16acc22b5fcbb3aaeec852048ab2196ea4e8",
    "src/xmsh/java/org/xms/g/common/images/ImageManager.java": "dd9f672b69359f709d7fca6977fbfdf6cc380f811df5f67fa97f63ef5c9326a6",
    "src/xmsh/java/org/xms/g/common/images/Size.java": "868e2d0f53dcac9705e49b32f3a12f0ba6f589543c1e644f7430dfb10b38c1e0",
    "src/xmsh/java/org/xms/g/common/images/WebImage.java": "18f0abdb77a3c4af6309bfd8847d7606191f97fbaa7cadc93ac929e25e9aee3d",
    "src/xmsh/java/org/xms/g/gcm/GcmNetworkManager.java": "f6050c5634ee160ec7004f126dade806b51d5cd3e5af21a98317a0e1e8be8c71",
    "src/xmsh/java/org/xms/g/gcm/GcmTaskService.java": "0744a27ae10954d529619339d85150231e5b14c6210adb4bfdf5450ef0f83932",
    "src/xmsh/java/org/xms/g/gcm/OneoffTask.java": "4b61efd87a509d39793fd80cbbae1deaf6efe3b44e09a308137f12a19420918e",
    "src/xmsh/java/org/xms/g/gcm/PeriodicTask.java": "0fe41d74d36b01b942a61364fc96d7f1e1badb079884f4b680bd92d665d3882a",
    "src/xmsh/java/org/xms/g/gcm/Task.java": "2cb6f72c53883e768e8341f4dc0705be5fb9191c8786ebeb98d2abdcdf671457",
    "src/xmsh/java/org/xms/g/gcm/TaskParams.java": "74efdcfa86358786e0faff14d1b0daed233cf4d58931db396889d1c5fc79e43c",
    "src/xmsh/java/org/xms/g/iid/InstanceID.java": "819bb193e18e9cd2bff1bc7d8c399bcade647eb32ecfc9fcd88cf2078f68cc4a",
    "src/xmsh/java/org/xms/g/iid/InstanceIDListenerService.java": "be7c1ce6a5a13bd30c603d5659ae9c86895dc5fb4347c48907ec659ddc64429c",
    "src/xmsh/java/org/xms/g/location/ActivityRecognition.java": "0c7dc983f32fa6e3eea6ee670fe80ebe37817ff119ef9f4218703723f33165d6",
    "src/xmsh/java/org/xms/g/location/ActivityRecognitionApi.java": "7e17ee22038388018a2178318bb96e4418bd55c82961f7acd821e6887a60ac28",
    "src/xmsh/java/org/xms/g/location/ActivityRecognitionClient.java": "b57f61e2993fd7d662d2421116f52ecf960d31e23d05bd7ce7d7655c7e95a334",
    "src/xmsh/java/org/xms/g/location/ActivityRecognitionResult.java": "836aa94ebe3cf9b4d82335a2f7b23fb76bf212cacdbe68bbada8ba8efef4ff61",
    "src/xmsh/java/org/xms/g/location/ActivityTransition.java": "f1524dfc5ac886ed1627eb0a35aaaa9a9bfdbb250b545bcfaf49e2dbcf813995",
    "src/xmsh/java/org/xms/g/location/ActivityTransitionEvent.java": "12068e717748566ba915a3157073200b193ee84748a5f4feea92eeb5ef09c741",
    "src/xmsh/java/org/xms/g/location/ActivityTransitionRequest.java": "9f106e0952b7f84052c56ba679057dc17c3c2040d0836800235217f7c489128b",
    "src/xmsh/java/org/xms/g/location/ActivityTransitionResult.java": "fb673d8c41f5f16fa1bf4facc2b2de066632183e859215691946f7717c2ff5a4",
    "src/xmsh/java/org/xms/g/location/DetectedActivity.java": "051b0b7d641067a7b46916cf2a60000417865becc0c94362db6f11e4aa8e3d13",
    "src/xmsh/java/org/xms/g/location/FusedLocationProviderApi.java": "7b02e651309f459626ea1921c895b9fd6f2749cd39bf889e208eb9413c6cb72f",
    "src/xmsh/java/org/xms/g/location/FusedLocationProviderClient.java": "3274567f9b2bb706c225f4f24acbe62df7e0788bcd349186cde1e371833137cd",
    "src/xmsh/java/org/xms/g/location/Geofence.java": "8e7ba853d2e8f1a0300bc8fa340f022801a50a59841cd74eb12c6f13658d97b2",
    "src/xmsh/java/org/xms/g/location/GeofenceStatusCodes.java": "10c14bafe18406e27ef0edcdd9016b7d2688202b4b661783413cde6f19384a3a",
    "src/xmsh/java/org/xms/g/location/GeofencingApi.java": "31bc92faa02fae66b3d014cf580a91065792ef2ad816e1485155766a2a01ce88",
    "src/xmsh/java/org/xms/g/location/GeofencingClient.java": "c2d7d15394b1b527e1669d44e7de3f386436551b371bfe5e18ae01e674ea7af6",
    "src/xmsh/java/org/xms/g/location/GeofencingEvent.java": "a44601bbbd85985383ea221421b65bb36ee3b182e63ab1c7204a3f9d3d65e172",
    "src/xmsh/java/org/xms/g/location/GeofencingRequest.java": "3c9c592ccf57c30dc01c241d06f26a97e33b473caf4999692b0504d8edac5ba9",
    "src/xmsh/java/org/xms/g/location/LocationAvailability.java": "508d58bcf599181810d686f31b7cdc9306a770fca5c7abe931e9e515cc35db07",
    "src/xmsh/java/org/xms/g/location/LocationCallback.java": "9f627a6bd9078676756158ac2b24cae6aa6080e5e98086dd35de0510d3c595a6",
    "src/xmsh/java/org/xms/g/location/LocationListener.java": "80f12bcd1099537bc94c8c6b4241dec66f97f6417f497a569a8f318703ea011a",
    "src/xmsh/java/org/xms/g/location/LocationRequest.java": "04a7626963d9f9a6c54493212f16e34b2123aaf433f0bcde5ba17e76cef49ac7",
    "src/xmsh/java/org/xms/g/location/LocationResult.java": "12aa58dc0e7b71904005dfaf089086385897e5f6012e7e9e569ca530f3daa1bb",
    "src/xmsh/java/org/xms/g/location/LocationServices.java": "f6d630fff9d2395da6143e3f3aacfecbdb578339cd42b42fffaef95e8538b50b",
    "src/xmsh/java/org/xms/g/location/LocationSettingsRequest.java": "8b3e1620a88ba85bbace1acf37e7b4ef9e8b3e33dbf452ed2c078b140aa14350",
    "src/xmsh/java/org/xms/g/location/LocationSettingsResponse.java": "be73deca50c43e1684ee9740503dbb7b3ff11c5d45c61803139068c99c5e530d",
    "src/xmsh/java/org/xms/g/location/LocationSettingsResult.java": "a52135a0dda1e3b360688e00ca02c7a4c218f71e7f294a53f82dfcdfa7d0693e",
    "src/xmsh/java/org/xms/g/location/LocationSettingsStates.java": "da58c1b9ae10dee9293fb98024dbd781cd394433cf517788d87bf485e445ef33",
    "src/xmsh/java/org/xms/g/location/LocationSettingsStatusCodes.java": "e295f638d40f72d47fae9c4906f08303ae13d7d9eb357c460c8c933f836ff9cb",
    "src/xmsh/java/org/xms/g/location/LocationStatusCodes.java": "822ec5c568ce57b745ec75bcd069b44e70da437e252749888e2059571f4631e6",
    "src/xmsh/java/org/xms/g/location/SettingsApi.java": "6c6de1d410c8c488f0b3f9681a62e23da7e7e37b7601abc752067d36f121bad9",
    "src/xmsh/java/org/xms/g/location/SettingsClient.java": "9b78b66257456b77d0922462e553d39f4882a6dfb717656cc1f446b8172b80c7",
    "src/xmsh/java/org/xms/g/measurement/AppMeasurementContentProvider.java": "3377d19482aad00cf72a0b93126a48014a94ef949fa028dc6bae8bdd83f8cd28",
    "src/xmsh/java/org/xms/g/measurement/AppMeasurementInstallReferrerReceiver.java": "555ee5b0a6a67d489fc8af6582e1a3a627d66265625ec19cd9d5f6c1eafd2355",
    "src/xmsh/java/org/xms/g/measurement/AppMeasurementJobService.java": "82e53de15ed892fc3cc1da60dbed5cd2538fdd3511ff93d16bc1a5f5c764865f",
    "src/xmsh/java/org/xms/g/measurement/AppMeasurementReceiver.java": "ace443fffa2398999a17356a6d1ab4ad2182a2ecb790540db3f43aaa8b144d5e",
    "src/xmsh/java/org/xms/g/measurement/AppMeasurementService.java": "75093b8ab5470110dba6669a4636d33ae51e184bc0fbc034b527b34d1fca67d9",
    "src/xmsh/java/org/xms/g/security/ProviderInstaller.java": "5d1764b64c5d631da901370eb371f8c027ec5cb5921ee571046351e865fd0e70",
    "src/xmsh/java/org/xms/g/tasks/CancellationToken.java": "c524df08aba38f7e0b07b498d89547d7068f89a3a601e4b330e18e919d0db03a",
    "src/xmsh/java/org/xms/g/tasks/CancellationTokenSource.java": "2faacc7fe7bb9767ce79438b9073ff0e3cafca9dced58b38d02db7f53748a47f",
    "src/xmsh/java/org/xms/g/tasks/Continuation.java": "657c32aedca1a35b62aa1baafa5da69af0a109c8205214ddbb774789cf107222",
    "src/xmsh/java/org/xms/g/tasks/OnCanceledListener.java": "9ed15a4291bb839a4bd460b6d46e2770999d649a6f0590dc4414d17b5e5c40c7",
    "src/xmsh/java/org/xms/g/tasks/OnCompleteListener.java": "7fb7a0ce8dc599e9d345adee393888fcec1c20e815a87c033dc914e1f53c55f5",
    "src/xmsh/java/org/xms/g/tasks/OnFailureListener.java": "f621ea5ae99ace0c6ac9bb5be3c966667fbd64d36a1f2351aa340dd713b565e2",
    "src/xmsh/java/org/xms/g/tasks/OnSuccessListener.java": "9c3c2752bc1504b1d364efe5f87aa72092bd770459d3dca8d7552081989d2c43",
    "src/xmsh/java/org/xms/g/tasks/OnTokenCanceledListener.java": "af85b2ca8647359b67b27cc69ec50434e40bc112859544a8b58e39064dfba347",
    "src/xmsh/java/org/xms/g/tasks/RuntimeExecutionException.java": "23ddd8fd4ac0fb3ffa357d480f5282d014e8cf40af4fb9769506723461344a4c",
    "src/xmsh/java/org/xms/g/tasks/SuccessContinuation.java": "f680184039c7517ae6eca1ca5ad9b1972a689283e6a32710f264725f6f2ae759",
    "src/xmsh/java/org/xms/g/tasks/Task.java": "4551e44387b5806f5a1f0cb42285ec8fa34db986eb413f72395556fe5a28852e",
    "src/xmsh/java/org/xms/g/tasks/TaskCompletionSource.java": "2474812a43c9b85098770b2ed752f90f20f983a0087a21d124e65c02be95a1d4",
    "src/xmsh/java/org/xms/g/tasks/TaskExecutors.java": "b7ddcac9749bb13241df680ac7efbb8bbbdae594979f8115b0050dea3972328d",
    "src/xmsh/java/org/xms/g/tasks/Tasks.java": "97a5aff4e9dfbdec0effdf4f36f00a31031305616ba0016e3ff987ce0efba3db",
    "src/xmsh/java/org/xms/g/utils/BridgeMethodUtils.java": "5152b2c1775c3730c5e19735be43cb74ec98555d02c10deb0baf348d658b0937",
    "src/xmsh/java/org/xms/g/utils/Function.java": "75088211117a22c222761168e86e3fad4c3c8e9bc41d1526fcfe8d06bd23b258",
    "src/xmsh/java/org/xms/g/utils/GlobalEnvSetting.java": "e09079399cc75aec4c3518b44cc33f122701dd926cc543bed5c9bac4fd3260bf",
    "src/xmsh/java/org/xms/g/utils/Parameter.java": "8deb429983ed3d06f3d3fc2b55b34a73638d7ea1158cd309eb38201b1524eebd",
    "src/xmsh/java/org/xms/g/utils/TypeNode.java": "aebcf269cb600b4baf8638d2ea096c5af0148e1985e35aafbe25d0c0d7085f26",
    "src/xmsh/java/org/xms/g/utils/Utils.java": "3bf2cbb107d70346d9c043eeb5ba5a4bd189d69183326be219ecd7728e19b608",
    "src/xmsh/java/org/xms/g/utils/XBox.java": "0de46e37a5fe84e7dd9638e7a504b9c2c464a931a3e7166e4910eb02839d7d3d",
    "src/xmsh/java/org/xms/g/utils/XEnum.java": "6d19c1bd22c43555537347e6206968bcb5379c675025a07de5ebcff95c31f252",
    "src/xmsh/java/org/xms/g/utils/XGettable.java": "e700dc16c5b2abe3756b271c6b80fd31c3c7700948349a26ab5eb01409bf03e2",
    "src/xmsh/java/org/xms/g/utils/XInterface.java": "14bb0533d9ba2744245f2538a0ab1174e6fcfbf11bc20403b736e76dd472be64",
    "src/xmsh/java/org/xms/g/utils/XObject.java": "a59842538b92bb8df5a5fe564bf99935c754ab7dd077cde6e8c40ddb58736f18",
    "src/xmsh/java/org/xms/g/utils/XmsLog.java": "9478dc3315095bfa413941c7bc3cf29abf8e591e8fecf9c57543532e37458775",
    "xmsaux/build.gradle": "aa3c7908dcab701ecc5f19f71604aa7876dae7499a10c8d33b71101a223c09ca",
    "xmsaux/proguard.txt": "69370afd9fcc32e430cd6d6b4a458db0882b8b0d7d96f65c77535c172739a988",
    "xmsaux/scripts/copy-dex.gradle": "37c90f6186a3f8b0b4e92f6fd28332401e13f453c2167a2fde37cef5af015106",
    "xmsaux/scripts/gen-dex.gradle": "ce3bb9f5d56b1a39b05095f5ecc66450cc2f8cc253aba9d965b1f3d55d815ade",
    "xmsaux/src/main/AndroidManifest.xml": "569f00b73fb454142e8bb70aeedf93342f16306a15a13821d59751b9be707186",
    "xmsaux/src/main/java/org/xms/adapter/utils/ClassloaderHooker.java": "3313c01c9638ef00fb9e030d3feb0cf8f313efe017ad0f78f4765d2add17e292",
    "xmsaux/src/main/java/org/xms/adapter/utils/ClassloaderHookerFactory.java": "cfd669fcbff8c0a15ac06de5ef1db89da50e154a91a8ea66a233bcd40fe1f563",
    "xmsaux/src/main/java/org/xms/adapter/utils/FileUtils.java": "87635dbb2960a2831f1ea6395880227d44e5aebf2f5137a4e69476acf2278aac",
    "xmsaux/src/main/java/org/xms/adapter/utils/ReflectionUtils.java": "82990d34f4fc989e80e8a0165eff6b3a99385d83fc3bc4a0e777a3db3e5f6621",
    "xmsaux/src/main/java/org/xms/adapter/utils/XClassLoader.java": "f8f60c79c5428917f9376be1316f41c2b01d4d34ecf3f71ab6d50cbe05064c2d",
    "xmsaux/src/main/java/org/xms/adapter/utils/XLoader.java": "8445c51a1a85ebbd6bb7685ee27914949061d3b6d67e09faa032e925ab997969",
    "xmsaux/xapi/build.gradle": "ab7573cb1883b64596741e8325dc16419271ff9d6bc4bfa9a16d398cf6be1ba5",
    "xmsaux/xapi/src/main/AndroidManifest.xml": "f95574420ceef31745f27168798eae8ce18ebe969a713fca180f82554686ac5b",
    "xmsaux/xapi/src/main/java/org/xms/f/messaging/ExtensionMessagingService.java": "d7a02c900260a7c1ff2a3d04f02c8049682fd2f73bed27d72bbdade35eb785a6",
    "xmsaux/xg/build.gradle": "587685b19982681c0a8685eabe09a568a4b951e621331847f69f15e8e5927245",
    "xmsaux/xg/src/main/AndroidManifest.xml": "92ac79b7fc9f9061a45b2a02aedf9e3da4de846a863d1e8508e9248e6107c511",
    "xmsaux/xg/src/main/java/org/xms/f/messaging/ExtensionMessagingService.java": "09103a5635e6b3bd2500f50f9dfd57ef6c4cfe0ffa4c50f88cda9d1ce5ccdb11",
    "xmsaux/xh/build.gradle": "299b07e941be4f5017f436a2025ae7d2efabe5ab17ba588beb49f3ed4f89f777",
    "xmsaux/xh/src/main/AndroidManifest.xml": "b7193f1effd79021b89ca5e5d0bee5072583086636e0e12857fa9aa5cf847864",
    "xmsaux/xh/src/main/java/org/xms/f/messaging/ExtensionMessagingService.java": "611f00c8ae4e2341b3e37d4abd965739f7e04352cc8552a6a2d09c8373af7ac4"
  }
}