-- Merging decision tree log ---
manifest
ADDED from /home/sasha/androidProjects/HuweiMigrationComplete/xmsadapter/xmsaux/xapi/src/main/AndroidManifest.xml:1:1-2:34
INJECTED from /home/sasha/androidProjects/HuweiMigrationComplete/xmsadapter/xmsaux/xapi/src/main/AndroidManifest.xml:1:1-2:34
INJECTED from /home/sasha/androidProjects/HuweiMigrationComplete/xmsadapter/xmsaux/xapi/src/main/AndroidManifest.xml:1:1-2:34
INJECTED from /home/sasha/androidProjects/HuweiMigrationComplete/xmsadapter/xmsaux/xapi/src/main/AndroidManifest.xml:1:1-2:34
INJECTED from /home/sasha/androidProjects/HuweiMigrationComplete/xmsadapter/xmsaux/xapi/src/main/AndroidManifest.xml:1:1-2:34
	package
		ADDED from /home/sasha/androidProjects/HuweiMigrationComplete/xmsadapter/xmsaux/xapi/src/main/AndroidManifest.xml:2:9-31
		INJECTED from /home/sasha/androidProjects/HuweiMigrationComplete/xmsadapter/xmsaux/xapi/src/main/AndroidManifest.xml
		INJECTED from /home/sasha/androidProjects/HuweiMigrationComplete/xmsadapter/xmsaux/xapi/src/main/AndroidManifest.xml
	android:versionName
		INJECTED from /home/sasha/androidProjects/HuweiMigrationComplete/xmsadapter/xmsaux/xapi/src/main/AndroidManifest.xml
		ADDED from /home/sasha/androidProjects/HuweiMigrationComplete/xmsadapter/xmsaux/xapi/src/main/AndroidManifest.xml:1:1-2:34
		INJECTED from /home/sasha/androidProjects/HuweiMigrationComplete/xmsadapter/xmsaux/xapi/src/main/AndroidManifest.xml
	xmlns:android
		ADDED from /home/sasha/androidProjects/HuweiMigrationComplete/xmsadapter/xmsaux/xapi/src/main/AndroidManifest.xml:1:11-69
uses-sdk
INJECTED from /home/sasha/androidProjects/HuweiMigrationComplete/xmsadapter/xmsaux/xapi/src/main/AndroidManifest.xml reason: use-sdk injection requested
INJECTED from /home/sasha/androidProjects/HuweiMigrationComplete/xmsadapter/xmsaux/xapi/src/main/AndroidManifest.xml
INJECTED from /home/sasha/androidProjects/HuweiMigrationComplete/xmsadapter/xmsaux/xapi/src/main/AndroidManifest.xml
INJECTED from /home/sasha/androidProjects/HuweiMigrationComplete/xmsadapter/xmsaux/xapi/src/main/AndroidManifest.xml
INJECTED from /home/sasha/androidProjects/HuweiMigrationComplete/xmsadapter/xmsaux/xapi/src/main/AndroidManifest.xml
	android:targetSdkVersion
		INJECTED from /home/sasha/androidProjects/HuweiMigrationComplete/xmsadapter/xmsaux/xapi/src/main/AndroidManifest.xml
		ADDED from /home/sasha/androidProjects/HuweiMigrationComplete/xmsadapter/xmsaux/xapi/src/main/AndroidManifest.xml
		INJECTED from /home/sasha/androidProjects/HuweiMigrationComplete/xmsadapter/xmsaux/xapi/src/main/AndroidManifest.xml
	android:minSdkVersion
		INJECTED from /home/sasha/androidProjects/HuweiMigrationComplete/xmsadapter/xmsaux/xapi/src/main/AndroidManifest.xml
		ADDED from /home/sasha/androidProjects/HuweiMigrationComplete/xmsadapter/xmsaux/xapi/src/main/AndroidManifest.xml
		INJECTED from /home/sasha/androidProjects/HuweiMigrationComplete/xmsadapter/xmsaux/xapi/src/main/AndroidManifest.xml
